Test/simulation/qsim/Parqueo.msim.vcd
$comment
	File created using the following command:
		vcd file Parqueo.msim.vcd -direction
$end
$date
	Mon Jan 13 06:48:26 2020
$end
$version
	ModelSim Version 10.5b
$end
$timescale
	1ps
$end

$scope module parqueo_vhd_vec_tst $end
$var wire 1 ! Ingreso $end
$var wire 1 " Minutos [4] $end
$var wire 1 # Minutos [3] $end
$var wire 1 $ Minutos [2] $end
$var wire 1 % Minutos [1] $end
$var wire 1 & Minutos [0] $end
$var wire 1 ' MinutosAPagar [4] $end
$var wire 1 ( MinutosAPagar [3] $end
$var wire 1 ) MinutosAPagar [2] $end
$var wire 1 * MinutosAPagar [1] $end
$var wire 1 + MinutosAPagar [0] $end
$var wire 1 , Pagado $end
$var wire 1 - PermitirIngreso $end
$var wire 1 . PermitirSalida $end
$var wire 1 / Tarjeta $end

$scope module i1 $end
$var wire 1 0 gnd $end
$var wire 1 1 vcc $end
$var wire 1 2 unknown $end
$var wire 1 3 devoe $end
$var wire 1 4 devclrn $end
$var wire 1 5 devpor $end
$var wire 1 6 ww_devoe $end
$var wire 1 7 ww_devclrn $end
$var wire 1 8 ww_devpor $end
$var wire 1 9 ww_Minutos [4] $end
$var wire 1 : ww_Minutos [3] $end
$var wire 1 ; ww_Minutos [2] $end
$var wire 1 < ww_Minutos [1] $end
$var wire 1 = ww_Minutos [0] $end
$var wire 1 > ww_Ingreso $end
$var wire 1 ? ww_Pagado $end
$var wire 1 @ ww_Tarjeta $end
$var wire 1 A ww_PermitirIngreso $end
$var wire 1 B ww_PermitirSalida $end
$var wire 1 C ww_MinutosAPagar [4] $end
$var wire 1 D ww_MinutosAPagar [3] $end
$var wire 1 E ww_MinutosAPagar [2] $end
$var wire 1 F ww_MinutosAPagar [1] $end
$var wire 1 G ww_MinutosAPagar [0] $end
$var wire 1 H \~QUARTUS_CREATED_GND~I_combout\ $end
$var wire 1 I \Pagado~input_o\ $end
$var wire 1 J \Ingreso~input_o\ $end
$var wire 1 K \Tarjeta~input_o\ $end
$var wire 1 L \demux1|Mux1~0_combout\ $end
$var wire 1 M \demux1|Mux2~0_combout\ $end
$var wire 1 N \Minutos[0]~input_o\ $end
$var wire 1 O \MinutosAPagar~0_combout\ $end
$var wire 1 P \Minutos[1]~input_o\ $end
$var wire 1 Q \MinutosAPagar~1_combout\ $end
$var wire 1 R \Minutos[2]~input_o\ $end
$var wire 1 S \MinutosAPagar~2_combout\ $end
$var wire 1 T \Minutos[3]~input_o\ $end
$var wire 1 U \MinutosAPagar~3_combout\ $end
$var wire 1 V \Minutos[4]~input_o\ $end
$var wire 1 W \MinutosAPagar~4_combout\ $end
$var wire 1 X \ALT_INV_Minutos[4]~input_o\ $end
$var wire 1 Y \ALT_INV_Minutos[3]~input_o\ $end
$var wire 1 Z \ALT_INV_Minutos[2]~input_o\ $end
$var wire 1 [ \ALT_INV_Minutos[1]~input_o\ $end
$var wire 1 \ \ALT_INV_Minutos[0]~input_o\ $end
$var wire 1 ] \ALT_INV_Tarjeta~input_o\ $end
$var wire 1 ^ \ALT_INV_Pagado~input_o\ $end
$var wire 1 _ \ALT_INV_Ingreso~input_o\ $end
$upscope $end
$upscope $end
$enddefinitions $end
#0
$dumpvars
1!
0,
0-
0.
1/
00
11
x2
13
14
15
16
17
18
1>
0?
1@
0A
0B
xH
0I
1J
1K
0L
0M
1N
1O
1P
1Q
1R
1S
1T
1U
1V
1W
0X
0Y
0Z
0[
0\
0]
1^
0_
1"
1#
1$
1%
1&
1'
1(
1)
1*
1+
19
1:
1;
1<
1=
1C
1D
1E
1F
1G
$end
#5000
0!
0%
0&
1,
0>
0=
0<
1?
1I
0P
0N
0J
1_
1\
1[
0^
0Q
0O
0G
0F
0+
0*
#10000
1&
0,
0"
0#
1=
0:
09
0?
0I
0V
0T
1N
0\
1Y
1X
1^
0U
0W
1O
1G
0C
0D
1+
0(
0'
#15000
0&
1,
1"
1#
1%
0$
0=
1<
0;
1:
19
1?
1I
1V
1T
0R
1P
0N
1\
0[
1Z
0Y
0X
0^
0S
1W
1Q
0O
0G
1F
1C
0E
0+
1*
0)
1'
#20000
0"
0%
1$
1!
0/
0<
1;
09
1>
0@
0K
1J
0V
1R
0P
1[
0Z
1X
0_
1]
0W
0Q
0F
0C
0*
0'
#25000
1%
0#
1<
0:
0T
1P
0[
1Y
#30000
0%
1#
1"
0$
0!
1/
0,
0<
0;
1:
19
0>
1@
0?
0I
1K
0J
1V
1T
0R
0P
1[
1Z
0Y
0X
1_
0]
1^
1W
1C
1'
#35000
0#
0"
1!
0/
1,
0:
09
1>
0@
1?
1I
0K
1J
0V
0T
1Y
1X
0_
1]
0^
0W
0C
0'
#40000
1#
1"
1:
19
1V
1T
0Y
0X
#45000
0"
1/
1&
1=
09
1@
1K
0V
1N
0\
1X
0]
1O
1G
1+
#50000
0&
0,
1$
0=
1;
0?
0I
1R
0N
1\
0Z
1^
1S
1U
0O
0G
1D
1E
0+
1)
1(
#55000
1,
0$
1"
1%
1?
1<
0;
19
1V
0R
1P
1I
0^
0[
1Z
0X
0S
0U
1W
1Q
1F
1C
0D
0E
1*
0)
0(
1'
#60000
0,
1$
0"
1&
0/
0#
0!
0?
1=
1;
0:
09
0@
0>
0J
0K
0V
0T
1R
1N
0I
1^
0\
0Z
1Y
1X
1]
1_
0Q
0W
0C
0F
0*
0'
#65000
1"
0&
1#
1!
0=
1:
19
1>
1J
1V
1T
0N
1\
0Y
0X
0_
1L
1A
1-
#70000
1,
0$
0%
1?
0<
0;
0R
0P
1I
0^
1[
1Z
0L
0A
0-
#75000
0,
1%
0"
0#
0?
1<
0:
09
0V
0T
1P
0I
1^
0[
1Y
1X
1L
1A
1-
#80000
1#
1$
1&
0!
1/
1=
1;
1:
0>
1@
1K
0J
1T
1R
1N
0\
0Z
0Y
1_
0]
1Q
0L
1S
1U
1O
1G
1D
1E
0A
1F
1+
1*
1)
1(
0-
#85000
0$
0&
1!
1"
0=
0;
19
1>
1J
1V
0R
0N
1\
1Z
0X
0_
0S
0U
1W
0O
0G
1C
0D
0E
0+
0)
0(
1'
