Test3/Test/simulation/qsim/Test3.msim.vcd
$comment
	File created using the following command:
		vcd file Test3.msim.vcd -direction
$end
$date
	Mon Jan 13 19:07:33 2020
$end
$version
	ModelSim Version 10.5b
$end
$timescale
	1ps
$end

$scope module Bloque_vlg_vec_tst $end
$var reg 1 ! enable $end
$var reg 1 " Listo $end
$var reg 1 # X0 $end
$var reg 1 $ X1 $end
$var reg 1 % X2 $end
$var reg 1 & X3 $end
$var wire 1 ' V0 $end
$var wire 1 ( V1 $end
$var wire 1 ) Vuelto $end
$var wire 1 * Y0 $end
$var wire 1 + Y1 $end
$var wire 1 , Y2 $end

$scope module i1 $end
$var wire 1 - gnd $end
$var wire 1 . vcc $end
$var wire 1 / unknown $end
$var tri1 1 0 devclrn $end
$var tri1 1 1 devpor $end
$var tri1 1 2 devoe $end
$var wire 1 3 ~QUARTUS_CREATED_GND~I_combout $end
$var wire 1 4 X1~input_o $end
$var wire 1 5 X0~input_o $end
$var wire 1 6 X3~input_o $end
$var wire 1 7 X2~input_o $end
$var wire 1 8 inst16|4~0_combout $end
$var wire 1 9 Listo~input_o $end
$var wire 1 : enable~input_o $end
$var wire 1 ; inst20|16~0_combout $end
$var wire 1 < inst20|24~0_combout $end
$var wire 1 = inst20|25~0_combout $end
$upscope $end
$upscope $end
$enddefinitions $end
#0
$dumpvars
0!
0"
0#
1$
0%
0&
1'
1(
1)
0*
1+
0,
0-
1.
x/
10
11
12
03
14
05
06
07
18
09
0:
0;
0<
1=
$end
#5000
1#
1%
15
17
0(
1<
1;
1,
0+
#10000
1"
0$
0#
19
04
05
1(
0=
0<
0;
0,
1+
1*
#15000
1&
0%
16
07
1=
08
0'
0*
#25000
1$
1#
1%
14
15
17
0(
0=
1<
18
1'
0+
1*
#30000
0"
09
1=
1;
1,
0*
#35000
0%
1"
07
19
0=
0;
0,
1*
#40000
0$
0#
1%
0"
04
05
17
09
1(
1=
0<
1+
0*
#45000
0%
1"
07
19
08
0'
#50000
1$
1#
1%
0"
14
15
17
09
0(
1<
1;
18
1'
1,
0+
#55000
0$
04
#60000
0%
1$
07
14
#65000
0&
1"
1%
0$
06
19
17
04
0=
0;
0,
1*
#70000
0#
0"
0%
05
09
07
1(
1=
0<
1+
0*
#75000
1#
1"
1%
15
19
17
0(
0=
1<
0+
1*
#80000
0%
07
#85000
1&
1$
0"
1%
16
14
09
17
1=
1;
1,
0*
#90000
0&
06
#95000
1&
16
#100000
0#
0$
0&
05
04
06
1(
0<
0;
0,
1+
#105000
1"
1$
19
14
0=
1*
#110000
0%
1#
0"
0$
07
15
09
04
0(
1=
1<
1;
1,
0+
0*
#115000
1&
1%
0#
1"
16
17
05
19
1(
0=
0<
0;
0,
1+
1*
#120000
1#
15
0(
1<
0+
#125000
0&
0"
06
09
1=
1;
1,
0*
#130000
0%
0#
1&
1"
07
05
16
19
1(
0<
0;
08
0'
0,
1+
#135000
1$
1#
0&
0"
14
15
06
09
0(
1<
1;
18
1'
1,
0+
#140000
0$
0#
1&
1"
04
05
16
19
1(
0<
0;
08
0'
0,
1+
#145000
0&
06
0=
18
1'
1*
#150000
1#
15
0(
1<
0+
#155000
0"
09
1=
1;
1,
0*
#160000
1&
16
#165000
1$
1"
0&
14
19
06
0=
0;
0,
1*
#170000
1%
0$
0"
17
04
09
1=
1;
1,
0*
#175000
1&
0%
16
07
#180000
0#
1$
0&
05
14
06
1(
0<
0;
0,
1+
#185000
1%
0$
17
04
#190000
1&
0%
16
07
0=
08
0'
1*
#195000
1"
1#
0&
19
15
06
0(
1<
18
1'
0+
#200000
0"
1&
09
16
1=
1;
1,
0*
#205000
1$
0&
14
06
#210000
1%
17
#215000
0$
1&
04
16
#220000
0#
05
1(
0<
0;
0,
1+
#225000
1"
1$
1#
19
14
15
0(
0=
1<
0+
1*
#230000
0"
09
1=
1;
1,
0*
#235000
0&
0#
06
05
1(
0<
0;
0,
1+
#240000
0%
1&
07
16
#245000
0$
1"
1#
0&
04
19
15
06
0(
0=
1<
0+
1*
#250000
1%
0#
17
05
1(
0<
1+
#255000
0"
1&
09
16
1=
0*
#260000
1$
1"
14
19
0=
1*
#265000
0%
0&
0"
07
06
09
1=
0*
#270000
1#
0$
15
04
0(
1<
1;
1,
0+
#275000
1%
1&
1"
1$
17
16
19
14
0=
0;
0,
1*
#280000
0#
0&
0$
05
06
04
1(
0<
1+
#285000
0%
0"
1&
07
09
16
08
0'
#290000
1#
1%
0&
15
17
06
0(
1=
1<
18
1;
1,
1'
0+
0*
#295000
1$
0%
1&
14
07
16
#300000
1%
0&
17
06
#305000
1"
0%
1&
19
07
16
0=
0;
0,
1*
#310000
1%
0&
17
06
#315000
0"
1&
09
16
1=
1;
1,
0*
#320000
0#
1"
05
19
1(
0=
0<
0;
0,
1+
1*
#325000
0&
1#
0"
06
15
09
0(
1=
1<
1;
1,
0+
0*
#330000
0$
1&
1"
04
16
19
0=
0;
0,
1*
#335000
0%
0#
1$
07
05
14
1(
0<
1+
#340000
0"
1#
0$
09
15
04
0(
1=
1<
1;
1,
0+
0*
#345000
1%
0#
1$
17
05
14
1(
0<
0;
0,
1+
#350000
0&
0%
1#
0$
06
07
15
04
0(
1<
1;
1,
0+
#355000
1"
1&
19
16
0=
0;
0,
1*
#360000
0#
1$
05
14
1(
0<
1+
#365000
1%
0"
1#
17
09
15
0(
1=
1<
1;
1,
0+
0*
#370000
0$
0%
1"
0#
04
07
19
05
1(
0<
0;
08
0'
0,
1+
#375000
1$
0"
14
09
18
1'
#380000
0&
1#
0$
06
15
04
0(
1<
1;
1,
0+
#385000
1%
1&
0#
17
16
05
1(
0<
0;
0,
1+
#390000
1"
19
0=
1*
#395000
1$
1#
14
15
0(
1<
0+
#400000
0%
0$
07
04
#405000
1%
1$
17
14
#410000
0"
0#
09
05
1(
1=
0<
1+
0*
#415000
0$
1"
04
19
0=
1*
#420000
0&
0%
06
07
#425000
1&
16
1=
08
0'
0*
#430000
1%
0&
17
06
0=
18
1'
1*
#435000
1$
0"
0%
1&
14
09
07
16
1=
0*
#440000
1#
0$
1%
15
04
17
0(
1<
1;
1,
0+
#445000
0&
1$
0%
06
14
07
#450000
1"
1%
19
17
0=
0;
0,
1*
#455000
0#
1&
0%
05
16
07
1(
0<
1+
#460000
0$
0&
04
06
#465000
0"
1%
09
17
1=
0*
#470000
1#
1$
1"
15
14
19
0(
0=
1<
0+
1*
#475000
1&
0$
16
04
#480000
0%
0#
0"
1$
07
05
09
14
1(
1=
0<
1+
0*
#485000
0&
1#
1"
0$
06
15
19
04
0(
0=
1<
0+
1*
#490000
1%
17
#495000
0#
0"
05
09
1(
1=
0<
1+
0*
#500000
1$
0%
1"
14
07
19
0=
1*
#505000
1#
0$
1%
15
04
17
0(
1<
0+
#510000
0#
1$
0%
05
14
07
1(
0<
1+
#515000
1&
1#
0$
16
15
04
0(
1<
0+
#520000
0&
0#
06
05
1(
0<
1+
#525000
1%
1#
17
15
0(
1<
0+
#530000
1$
0%
14
07
#535000
0"
1&
0#
0$
09
16
05
04
1(
0<
08
0'
1+
#540000
1%
17
1=
18
1'
0*
#545000
1$
14
#550000
1"
19
0=
1*
#555000
0%
0$
0"
07
04
09
08
0'
#560000
0&
1%
1"
06
17
19
18
1'
#565000
0%
0"
07
09
1=
0*
#570000
1&
1%
16
17
#585000
1"
19
0=
1*
#590000
1#
0&
0"
15
06
09
0(
1=
1<
1;
1,
0+
0*
#595000
1$
0#
14
05
1(
0<
0;
0,
1+
#600000
0%
1"
0$
1#
07
19
04
15
0(
0=
1<
0+
1*
#605000
1%
0"
1$
0#
17
09
14
05
1(
1=
0<
1+
0*
#610000
1&
0%
0$
16
07
04
0=
08
0'
1*
#615000
1#
0&
1%
15
06
17
0(
1=
1<
18
1;
1,
1'
0+
0*
#620000
1$
0#
14
05
1(
0<
0;
0,
1+
#625000
1"
19
0=
1*
#630000
1&
1#
0"
16
15
09
0(
1=
1<
1;
1,
0+
0*
#635000
0$
0#
1"
04
05
19
1(
0=
0<
0;
0,
1+
1*
#640000
0%
0&
1#
07
06
15
0(
1<
0+
#645000
0"
1%
09
17
1=
1;
1,
0*
#650000
1"
19
0=
0;
0,
1*
#655000
0#
0%
0"
05
07
09
1(
1=
0<
1+
0*
#660000
1$
14
#665000
1#
1%
1"
15
17
19
0(
0=
1<
0+
1*
#670000
1&
0$
0%
0"
16
04
07
09
1=
1;
1,
0*
#675000
0#
1%
1"
05
17
19
1(
0=
0<
0;
0,
1+
1*
#680000
0&
0"
06
09
1=
0*
#685000
1#
15
0(
1<
1;
1,
0+
#695000
0%
1"
0#
07
19
05
1(
0=
0<
0;
0,
1+
1*
#700000
1$
1%
0"
14
17
09
1=
0*
#705000
1&
0$
16
04
#710000
1#
1"
15
19
0(
0=
1<
0+
1*
#715000
0%
1$
0#
0"
07
14
05
09
1(
1=
0<
1+
0*
#720000
0&
06
#725000
1"
1&
19
16
0=
1*
#730000
1%
0$
0&
17
04
06
#735000
1#
0%
1$
15
07
14
0(
1<
0+
#740000
1&
1%
0$
16
17
04
#745000
0"
1$
09
14
1=
1;
1,
0*
#750000
0&
1"
06
19
0=
0;
0,
1*
#755000
0#
0$
1&
05
04
16
1(
0<
1+
#760000
0"
09
1=
0*
#765000
0%
07
0=
08
0'
1*
#775000
1$
0&
1%
14
06
17
1=
18
1'
0*
#780000
1"
0$
1&
19
04
16
0=
1*
#785000
1#
0%
0"
15
07
09
0(
1=
1<
1;
1,
0+
0*
#790000
1$
0&
1%
1"
14
06
17
19
0=
0;
0,
1*
#795000
0#
0$
0%
05
04
07
1(
0<
1+
#800000
0"
1$
1%
09
14
17
1=
0*
#805000
1#
1"
0$
0%
15
19
04
07
0(
0=
1<
0+
1*
#810000
0"
1$
09
14
1=
1;
1,
0*
#815000
0$
04
#820000
1&
1%
1$
16
17
14
#825000
0#
1"
0$
05
19
04
1(
0=
0<
0;
0,
1+
1*
#830000
0%
0"
1$
07
09
14
1=
0*
#835000
1%
17
#840000
0&
1#
06
15
0(
1<
1;
1,
0+
#845000
1"
0%
1&
19
07
16
0=
0;
0,
1*
#850000
0$
0#
1%
04
05
17
1(
0<
1+
#855000
0"
0&
1$
1#
09
06
14
15
0(
1=
1<
1;
1,
0+
0*
#860000
0#
05
1(
0<
0;
0,
1+
#865000
1&
0$
16
04
#880000
0%
1#
0&
1$
07
15
06
14
0(
1<
1;
1,
0+
#885000
0#
05
1(
0<
0;
0,
1+
#890000
1&
0$
16
04
0=
08
0'
1*
#895000
1%
1$
17
14
1=
18
1'
0*
#900000
1"
1#
0$
19
15
04
0(
0=
1<
0+
1*
#905000
0%
0"
07
09
1=
1;
1,
0*
#910000
0#
1$
1"
05
14
19
1(
0=
0<
0;
0,
1+
1*
#915000
1%
1#
17
15
0(
1<
0+
#920000
0&
0$
06
04
#925000
0%
0#
07
05
1(
0<
1+
#930000
0"
1$
09
14
1=
0*
#935000
1&
1%
1"
0$
16
17
19
04
0=
1*
#940000
0&
06
#945000
0%
1$
1&
07
14
16
#950000
1%
17
#955000
1#
0$
0%
15
04
07
0(
1<
0+
#960000
0#
1$
1%
05
14
17
1(
0<
1+
#965000
0"
1#
09
15
0(
1=
1<
1;
1,
0+
0*
#970000
0&
0%
1"
06
07
19
0=
0;
0,
1*
#975000
0$
1&
1%
0"
04
16
17
09
1=
1;
1,
0*
#980000
0#
1$
0&
0%
1"
05
14
06
07
19
1(
0=
0<
0;
0,
1+
1*
#985000
1#
0$
1&
1%
15
04
16
17
0(
1<
0+
#990000
0"
0%
09
07
1=
1;
1,
0*
#995000
0#
1$
0&
1"
1%
05
14
06
19
17
1(
0=
0<
0;
0,
1+
1*
