Test5/simulation/qsim/Practica6.msim.vcd
$comment
	File created using the following command:
		vcd file Practica6.msim.vcd -direction
$end
$date
	Tue Jan 21 07:02:11 2020
$end
$version
	ModelSim Version 10.5b
$end
$timescale
	1ps
$end

$scope module decoder_de_bcd_a_7segmentos_vhd_vec_tst $end
$var wire 1 ! BCD [3] $end
$var wire 1 " BCD [2] $end
$var wire 1 # BCD [1] $end
$var wire 1 $ BCD [0] $end
$var wire 1 % SEG7 [0] $end
$var wire 1 & SEG7 [1] $end
$var wire 1 ' SEG7 [2] $end
$var wire 1 ( SEG7 [3] $end
$var wire 1 ) SEG7 [4] $end
$var wire 1 * SEG7 [5] $end
$var wire 1 + SEG7 [6] $end

$scope module i1 $end
$var wire 1 , gnd $end
$var wire 1 - vcc $end
$var wire 1 . unknown $end
$var wire 1 / devoe $end
$var wire 1 0 devclrn $end
$var wire 1 1 devpor $end
$var wire 1 2 ww_devoe $end
$var wire 1 3 ww_devclrn $end
$var wire 1 4 ww_devpor $end
$var wire 1 5 ww_BCD [3] $end
$var wire 1 6 ww_BCD [2] $end
$var wire 1 7 ww_BCD [1] $end
$var wire 1 8 ww_BCD [0] $end
$var wire 1 9 ww_SEG7 [0] $end
$var wire 1 : ww_SEG7 [1] $end
$var wire 1 ; ww_SEG7 [2] $end
$var wire 1 < ww_SEG7 [3] $end
$var wire 1 = ww_SEG7 [4] $end
$var wire 1 > ww_SEG7 [5] $end
$var wire 1 ? ww_SEG7 [6] $end
$var wire 1 @ \~QUARTUS_CREATED_GND~I_combout\ $end
$var wire 1 A \BCD[3]~input_o\ $end
$var wire 1 B \BCD[2]~input_o\ $end
$var wire 1 C \BCD[0]~input_o\ $end
$var wire 1 D \BCD[1]~input_o\ $end
$var wire 1 E \SEG7~0_combout\ $end
$var wire 1 F \SEG7~1_combout\ $end
$var wire 1 G \SEG7~2_combout\ $end
$var wire 1 H \SEG7~3_combout\ $end
$var wire 1 I \SEG7~6_combout\ $end
$var wire 1 J \SEG7~4_combout\ $end
$var wire 1 K \SEG7~5_combout\ $end
$var wire 1 L \ALT_INV_BCD[0]~input_o\ $end
$var wire 1 M \ALT_INV_BCD[3]~input_o\ $end
$var wire 1 N \ALT_INV_BCD[1]~input_o\ $end
$var wire 1 O \ALT_INV_BCD[2]~input_o\ $end
$var wire 1 P \ALT_INV_SEG7~4_combout\ $end
$upscope $end
$upscope $end
$enddefinitions $end
#0
$dumpvars
0,
1-
x.
1/
10
11
12
13
14
x@
1A
0B
0C
1D
1E
1F
1G
1H
1I
0J
1K
1L
0M
0N
1O
1P
1!
0"
1#
0$
15
06
17
08
19
1:
1;
1<
1=
1>
1?
1%
1&
1'
1(
1)
1*
1+
$end
#5000
1"
1$
18
16
1B
1C
0L
0O
#10000
0"
0$
08
06
0B
0C
1L
1O
#15000
1$
0!
18
05
0A
1C
0L
1M
0E
0H
0I
1J
0K
0P
09
0;
0<
0?
0:
0+
0(
0'
0%
0&
#20000
1!
0#
07
15
1A
0D
1N
0M
0F
0>
0*
#25000
0!
1#
1"
17
16
05
0A
1B
1D
0N
0O
1M
1E
1F
1H
1<
1>
1?
1+
1*
1(
#30000
0$
08
0C
1L
0E
0F
0G
0H
0J
1P
0<
0=
0>
0?
1:
0+
0*
0)
0(
1&
#35000
1$
0#
0"
18
07
06
0B
0D
1C
0L
1N
1O
1E
1F
1G
1H
1J
1K
0P
19
1<
1=
1>
1?
0:
1+
1*
1)
1(
1%
0&
#40000
0$
1!
08
15
1A
0C
1L
0M
0E
0F
0G
0H
0K
09
0<
0=
0>
0?
0+
0*
0)
0(
0%
#45000
1$
0!
1#
18
17
05
0A
1D
1C
0L
0N
1M
1F
1G
1=
1>
1*
1)
#50000
1!
15
1A
0M
1E
1H
1I
0J
1K
1P
19
1;
1<
1?
1:
1+
1(
1'
1%
1&
#55000
0!
0#
1"
07
16
05
0A
1B
0D
1N
0O
1M
0E
0F
0H
0I
0K
09
0;
0<
0>
0?
0+
0*
0(
0'
0%
#60000
1#
17
1D
0N
1E
1F
1H
1J
0P
1<
1>
1?
0:
1+
1*
1(
0&
#65000
0$
08
0C
1L
0E
0F
0G
0H
0J
1P
0<
0=
0>
0?
1:
0+
0*
0)
0(
1&
#70000
1$
0#
0"
18
07
06
0B
0D
1C
0L
1N
1O
1E
1F
1G
1H
1J
1K
0P
19
1<
1=
1>
1?
0:
1+
1*
1)
1(
1%
0&
#75000
0$
1#
1!
08
17
15
1A
1D
0C
1L
0N
0M
1I
0J
1P
1;
1:
1'
1&
#80000
1$
0#
1"
18
07
16
1B
0D
1C
0L
1N
0O
#85000
1#
17
1D
0N
#90000
0"
06
0B
1O
#95000
1"
0#
0$
0!
08
07
16
05
0A
1B
0D
0C
1L
1N
0O
1M
0E
0F
0I
1J
0P
0;
0>
0?
0:
0+
0*
0'
0&
#100000
0"
06
0B
1O
1E
0G
0H
0K
09
0<
0=
1?
1+
0)
0(
0%
#110000
1#
1!
17
15
1A
1D
0N
0M
1F
1G
1H
1I
0J
1K
1P
19
1;
1<
1=
1>
1:
1*
1)
1(
1'
1%
1&
#115000
0#
07
0D
1N
0E
0F
0G
0H
0I
1J
0K
0P
09
0;
0<
0=
0>
0?
0:
0+
0*
0)
0(
0'
0%
0&
#125000
0!
05
0A
1M
1E
1?
1+
#130000
1$
18
1C
0L
1F
1G
1H
1K
19
1<
1=
1>
1*
1)
1(
1%
#135000
1!
15
1A
0M
0E
0F
0H
0K
09
0<
0>
0?
0+
0*
0(
0%
#140000
1#
1"
17
16
1B
1D
0N
0O
1E
1F
1H
1I
0J
1K
1P
19
1;
1<
1>
1?
1:
1+
1*
1(
1'
1%
1&
#145000
0!
05
0A
1M
0I
1J
0K
0P
09
0;
0:
0'
0%
0&
#150000
0$
08
0C
1L
0E
0F
0G
0H
0J
1P
0<
0=
0>
0?
1:
0+
0*
0)
0(
1&
#155000
1!
15
1A
0M
1E
1F
1G
1H
1I
1K
19
1;
1<
1=
1>
1?
1+
1*
1)
1(
1'
1%
#160000
0!
1$
18
05
0A
1C
0L
1M
0I
1J
0K
0P
09
0;
0:
0'
0%
0&
#165000
1!
0#
0"
07
06
15
1A
0B
0D
1N
1O
0M
0E
0F
0H
0<
0>
0?
0+
0*
0(
#170000
1"
0$
08
16
1B
0C
1L
0O
1E
1F
1H
1I
0J
1K
1P
19
1;
1<
1>
1?
1:
1+
1*
1(
1'
1%
1&
#175000
1$
0!
1#
18
17
05
0A
1D
1C
0L
0N
1M
0I
1J
0K
0P
09
0;
0:
0'
0%
0&
#180000
0$
1!
0#
0"
08
07
06
15
1A
0B
0D
0C
1L
1N
1O
0M
0E
0F
0G
0H
0<
0=
0>
0?
0+
0*
0)
0(
#185000
1"
16
1B
0O
1E
1F
1G
1H
1I
0J
1K
1P
19
1;
1<
1=
1>
1?
1:
1+
1*
1)
1(
1'
1%
1&
#195000
0"
0!
1#
17
06
05
0A
0B
1D
0N
1O
1M
0E
0G
0H
1J
0K
0P
09
0<
0=
0?
0:
0+
0)
0(
0%
0&
#200000
0#
07
0D
1N
1E
0F
0I
0;
0>
1?
1+
0*
0'
#205000
1!
15
1A
0M
0E
0?
0+
#210000
0!
1#
1$
18
17
05
0A
1D
1C
0L
0N
1M
1F
1G
1=
1>
1*
1)
#215000
0#
0$
08
07
0D
0C
1L
1N
1E
0F
0G
0=
0>
1?
1+
0*
0)
#220000
1#
1!
17
15
1A
1D
0N
0M
1F
1G
1H
1I
0J
1K
1P
19
1;
1<
1=
1>
1:
1*
1)
1(
1'
1%
1&
#225000
0#
1$
18
07
0D
1C
0L
1N
0E
0F
0H
0I
1J
0K
0P
09
0;
0<
0>
0?
0:
0+
0*
0(
0'
0%
0&
#230000
1#
0$
0!
1"
08
17
16
05
0A
1B
1D
0C
1L
0N
0O
1M
0G
0J
1P
0=
1:
0)
1&
#235000
0#
1$
0"
18
07
06
0B
0D
1C
0L
1N
1O
1E
1F
1G
1H
1J
1K
0P
19
1<
1=
1>
1?
0:
1+
1*
1)
1(
1%
0&
#240000
0$
08
0C
1L
0F
0G
0H
0K
09
0<
0=
0>
0*
0)
0(
0%
#245000
1$
18
1C
0L
1F
1G
1H
1K
19
1<
1=
1>
1*
1)
1(
1%
#250000
1#
1!
17
15
1A
1D
0N
0M
1I
0J
1P
1;
1:
1'
1&
#255000
0#
0!
0$
08
07
05
0A
0D
0C
1L
1N
1M
0F
0G
0H
0I
1J
0K
0P
09
0;
0<
0=
0>
0:
0*
0)
0(
0'
0%
0&
#265000
1#
1"
17
16
1B
1D
0N
0O
0E
0J
1P
0?
1:
0+
1&
#270000
0#
1$
18
07
0D
1C
0L
1N
1G
1=
1)
#285000
1#
1!
17
15
1A
1D
0N
0M
1E
1F
1H
1I
1K
19
1;
1<
1>
1?
1+
1*
1(
1'
1%
#290000
0$
08
0C
1L
#295000
1$
0"
18
06
0B
1C
0L
1O
#300000
0!
05
0A
1M
0E
0H
0I
1J
0K
0P
09
0;
0<
0?
0:
0+
0(
0'
0%
0&
#305000
1!
15
1A
0M
1E
1H
1I
0J
1K
1P
19
1;
1<
1?
1:
1+
1(
1'
1%
1&
#310000
0$
1"
08
16
1B
0C
1L
0O
#315000
0!
05
0A
1M
0E
0F
0G
0H
0I
0K
09
0;
0<
0=
0>
0?
0+
0*
0)
0(
0'
0%
#320000
1!
0#
07
15
1A
0D
1N
0M
1E
1F
1G
1H
1I
1K
19
1;
1<
1=
1>
1?
1+
1*
1)
1(
1'
1%
#325000
0!
1#
17
05
0A
1D
0N
1M
0E
0F
0G
0H
0I
0K
09
0;
0<
0=
0>
0?
0+
0*
0)
0(
0'
0%
#330000
0#
0"
07
06
0B
0D
1N
1O
1E
1J
0P
1?
0:
1+
0&
#335000
1!
1$
18
15
1A
1C
0L
0M
0E
1G
1=
0?
0+
1)
#340000
0!
0$
1#
1"
08
17
16
05
0A
1B
1D
0C
1L
0N
0O
1M
0G
0J
1P
0=
1:
0)
1&
#345000
1!
1$
0#
18
07
15
1A
0D
1C
0L
1N
0M
1E
1F
1G
1H
1I
1K
19
1;
1<
1=
1>
1?
1+
1*
1)
1(
1'
1%
#355000
0!
1#
17
05
0A
1D
0N
1M
0I
1J
0K
0P
09
0;
0:
0'
0%
0&
#360000
1!
0"
06
15
1A
0B
1O
0M
1I
0J
1K
1P
19
1;
1:
1'
1%
1&
#365000
0#
0$
08
07
0D
0C
1L
1N
0E
0F
0G
0H
0I
1J
0K
0P
09
0;
0<
0=
0>
0?
0:
0+
0*
0)
0(
0'
0%
0&
#375000
1#
1$
18
17
1D
1C
0L
0N
1E
1F
1G
1H
1I
0J
1K
1P
19
1;
1<
1=
1>
1?
1:
1+
1*
1)
1(
1'
1%
1&
#380000
0#
0$
0!
08
07
05
0A
0D
0C
1L
1N
1M
0F
0G
0H
0I
1J
0K
0P
09
0;
0<
0=
0>
0:
0*
0)
0(
0'
0%
0&
#385000
1#
1$
1!
18
17
15
1A
1D
1C
0L
0N
0M
1F
1G
1H
1I
0J
1K
1P
19
1;
1<
1=
1>
1:
1*
1)
1(
1'
1%
1&
#390000
0#
0!
1"
07
16
05
0A
1B
0D
1N
0O
1M
0E
0F
0H
0I
0K
09
0;
0<
0>
0?
0+
0*
0(
0'
0%
#395000
1#
17
1D
0N
1E
1F
1H
1J
0P
1<
1>
1?
0:
1+
1*
1(
0&
#400000
0#
0"
07
06
0B
0D
1N
1O
1K
19
1%
#405000
1"
1!
16
15
1A
1B
0O
0M
1I
0J
1P
1;
1:
1'
1&
#415000
0"
0$
08
06
0B
0C
1L
1O
0E
0F
0G
0H
0I
1J
0K
0P
09
0;
0<
0=
0>
0?
0:
0+
0*
0)
0(
0'
0%
0&
#420000
1"
0!
16
05
0A
1B
0O
1M
1G
1H
1K
19
1<
1=
1)
1(
1%
#425000
0"
1!
1$
1#
18
17
06
15
1A
0B
1D
1C
0L
0N
1O
0M
1E
1F
1I
0J
1P
1;
1>
1?
1:
1+
1*
1'
1&
#430000
1"
0$
08
16
1B
0C
1L
0O
#435000
0"
0!
06
05
0A
0B
1O
1M
0E
0G
0H
1J
0K
0P
09
0<
0=
0?
0:
0+
0)
0(
0%
0&
#440000
1"
1!
1$
18
16
15
1A
1B
1C
0L
0O
0M
1E
1G
1H
0J
1K
1P
19
1<
1=
1?
1:
1+
1)
1(
1%
1&
#445000
0"
0!
0$
0#
08
07
06
05
0A
0B
0D
0C
1L
1N
1O
1M
0F
0G
0H
0I
1J
0K
0P
09
0;
0<
0=
0>
0:
0*
0)
0(
0'
0%
0&
#450000
1$
1#
18
17
1D
1C
0L
0N
0E
1F
1G
1=
1>
0?
0+
1*
1)
#455000
0#
1"
07
16
1B
0D
1N
0O
0F
0J
1P
0>
1:
0*
1&
#460000
0$
08
0C
1L
1H
1J
1K
0P
19
1<
0:
1(
1%
0&
#465000
0"
1!
06
15
1A
0B
1O
0M
0G
0H
0K
09
0<
0=
0)
0(
0%
#470000
1"
16
1B
0O
1E
1F
1G
1H
1I
0J
1K
1P
19
1;
1<
1=
1>
1?
1:
1+
1*
1)
1(
1'
1%
1&
#475000
0!
05
0A
1M
0E
0F
0I
1J
0P
0;
0>
0?
0:
0+
0*
0'
0&
#480000
1!
1$
1#
18
17
15
1A
1D
1C
0L
0N
0M
1E
1F
1I
0J
1P
1;
1>
1?
1:
1+
1*
1'
1&
#485000
0"
06
0B
1O
#490000
0$
0#
08
07
0D
0C
1L
1N
0E
0F
0G
0H
0I
1J
0K
0P
09
0;
0<
0=
0>
0?
0:
0+
0*
0)
0(
0'
0%
0&
#495000
1$
1#
18
17
1D
1C
0L
0N
1E
1F
1G
1H
1I
0J
1K
1P
19
1;
1<
1=
1>
1?
1:
1+
1*
1)
1(
1'
1%
1&
#500000
0$
0!
08
05
0A
0C
1L
1M
0E
0G
0H
1J
0K
0P
09
0<
0=
0?
0:
0+
0)
0(
0%
0&
#505000
1!
15
1A
0M
1E
1G
1H
0J
1K
1P
19
1<
1=
1?
1:
1+
1)
1(
1%
1&
#510000
0!
1$
0#
18
07
05
0A
0D
1C
0L
1N
1M
0I
1J
0P
0;
0:
0'
0&
#515000
0$
1"
08
16
1B
0C
1L
0O
0E
0F
0>
0?
0+
0*
#520000
0"
06
0B
1O
1E
0G
0H
0K
09
0<
0=
1?
1+
0)
0(
0%
#525000
1"
1$
18
16
1B
1C
0L
0O
0E
1G
0J
1P
1=
0?
1:
0+
1)
1&
#530000
0"
0$
08
06
0B
0C
1L
1O
1E
0G
1J
0P
0=
1?
0:
1+
0)
0&
#535000
1$
1!
18
15
1A
1C
0L
0M
0E
1G
1=
0?
0+
1)
#540000
0$
0!
1#
08
17
05
0A
1D
0C
1L
0N
1M
1F
0G
1I
1;
0=
1>
1*
0)
1'
#545000
1$
1!
0#
18
07
15
1A
0D
1C
0L
1N
0M
0F
1G
0I
0;
1=
0>
0*
1)
0'
#550000
0$
08
0C
1L
0G
0=
0)
#555000
1"
16
1B
0O
1E
1F
1G
1H
1I
0J
1K
1P
19
1;
1<
1=
1>
1?
1:
1+
1*
1)
1(
1'
1%
1&
#560000
1$
0!
18
05
0A
1C
0L
1M
0E
0F
0H
0I
0K
09
0;
0<
0>
0?
0+
0*
0(
0'
0%
#565000
0"
06
0B
1O
1E
1F
1H
1J
1K
0P
19
1<
1>
1?
0:
1+
1*
1(
1%
0&
#575000
0$
1!
08
15
1A
0C
1L
0M
0E
0F
0G
0H
0K
09
0<
0=
0>
0?
0+
0*
0)
0(
0%
#580000
1"
1#
17
16
1B
1D
0N
0O
1E
1F
1G
1H
1I
0J
1K
1P
19
1;
1<
1=
1>
1?
1:
1+
1*
1)
1(
1'
1%
1&
#585000
0"
1$
18
06
0B
1C
0L
1O
#590000
1"
0#
0!
07
16
05
0A
1B
0D
1N
0O
1M
0E
0F
0H
0I
0K
09
0;
0<
0>
0?
0+
0*
0(
0'
0%
#595000
0"
1#
1!
0$
08
17
06
15
1A
0B
1D
0C
1L
0N
1O
0M
1E
1F
1H
1I
1K
19
1;
1<
1>
1?
1+
1*
1(
1'
1%
#600000
1$
18
1C
0L
#605000
0$
0!
08
05
0A
0C
1L
1M
0E
0G
0H
1J
0K
0P
09
0<
0=
0?
0:
0+
0)
0(
0%
0&
#610000
1!
1"
16
15
1A
1B
0O
0M
1E
1G
1H
0J
1K
1P
19
1<
1=
1?
1:
1+
1)
1(
1%
1&
#615000
0!
0"
06
05
0A
0B
1O
1M
0E
0G
0H
1J
0K
0P
09
0<
0=
0?
0:
0+
0)
0(
0%
0&
#625000
0#
07
0D
1N
1E
0F
0I
0;
0>
1?
1+
0*
0'
#630000
1#
1"
1$
18
17
16
1B
1D
1C
0L
0N
0O
1F
1G
1H
1<
1=
1>
1*
1)
1(
#635000
0"
0$
08
06
0B
0C
1L
1O
0E
0G
0H
1I
1;
0<
0=
0?
0+
0)
0(
1'
#645000
1"
0#
1!
07
16
15
1A
1B
0D
1N
0O
0M
1E
1G
1H
0J
1K
1P
19
1<
1=
1?
1:
1+
1)
1(
1%
1&
#650000
1#
17
1D
0N
#655000
0"
1$
18
06
0B
1C
0L
1O
#660000
0!
05
0A
1M
0E
0H
0I
1J
0K
0P
09
0;
0<
0?
0:
0+
0(
0'
0%
0&
#665000
1!
1"
0$
08
16
15
1A
1B
0C
1L
0O
0M
1E
1H
1I
0J
1K
1P
19
1;
1<
1?
1:
1+
1(
1'
1%
1&
#670000
0!
0"
1$
0#
18
07
06
05
0A
0B
0D
1C
0L
1N
1O
1M
0I
1J
0P
0;
0:
0'
0&
#675000
1"
1#
17
16
1B
1D
0N
0O
0K
09
0%
#680000
0#
07
0D
1N
0E
0F
0H
0J
1P
0<
0>
0?
1:
0+
0*
0(
1&
#685000
1#
0"
0$
08
17
06
0B
1D
0C
1L
0N
1O
1F
0G
1I
1J
0P
1;
0=
1>
0:
1*
0)
1'
0&
#690000
0#
1"
1!
07
16
15
1A
1B
0D
1N
0O
0M
1E
1G
1H
0J
1K
1P
19
1<
1=
1?
1:
1+
1)
1(
1%
1&
#695000
1#
0"
0!
17
06
05
0A
0B
1D
0N
1O
1M
0E
0G
0H
1J
0K
0P
09
0<
0=
0?
0:
0+
0)
0(
0%
0&
#700000
0#
1"
1!
1$
18
07
16
15
1A
1B
0D
1C
0L
1N
0O
0M
1E
1G
1H
0J
1K
1P
19
1<
1=
1?
1:
1+
1)
1(
1%
1&
#705000
0"
0!
06
05
0A
0B
1O
1M
0I
1J
0P
0;
0:
0'
0&
#710000
1#
0$
08
17
1D
0C
1L
0N
0E
0G
0H
1I
0K
09
1;
0<
0=
0?
0+
0)
0(
1'
0%
#715000
1$
1"
18
16
1B
1C
0L
0O
1E
1G
1H
0I
0;
1<
1=
1?
1+
1)
1(
0'
#725000
1!
15
1A
0M
1I
0J
1K
1P
19
1;
1:
1'
1%
1&
#730000
0!
0"
06
05
0A
0B
1O
1M
0E
0H
0I
1J
0K
0P
09
0;
0<
0?
0:
0+
0(
0'
0%
0&
#735000
0$
0#
08
07
0D
0C
1L
1N
1E
0F
0G
0=
0>
1?
1+
0*
0)
#740000
1"
16
1B
0O
0E
1G
1H
1K
19
1<
1=
0?
0+
1)
1(
1%
#745000
0"
1#
17
06
0B
1D
0N
1O
1F
0G
0H
1I
0K
09
1;
0<
0=
1>
1*
0)
0(
1'
0%
#750000
1"
0#
1$
18
07
16
1B
0D
1C
0L
1N
0O
0F
1G
0I
0J
1P
0;
1=
0>
1:
0*
1)
0'
1&
#755000
1!
15
1A
0M
1E
1F
1H
1I
1K
19
1;
1<
1>
1?
1+
1*
1(
1'
1%
#760000
0$
08
0C
1L
#770000
1$
0!
1#
18
17
05
0A
1D
1C
0L
0N
1M
0I
1J
0K
0P
09
0;
0:
0'
0%
0&
#775000
0$
1!
0#
08
07
15
1A
0D
0C
1L
1N
0M
1I
0J
1K
1P
19
1;
1:
1'
1%
1&
#780000
1#
0"
17
06
0B
1D
0N
1O
#790000
0#
1"
1$
0!
18
07
16
05
0A
1B
0D
1C
0L
1N
0O
1M
0E
0F
0H
0I
0K
09
0;
0<
0>
0?
0+
0*
0(
0'
0%
#795000
1#
0"
17
06
0B
1D
0N
1O
1F
1J
0P
1>
0:
1*
0&
#800000
1"
0$
08
16
1B
0C
1L
0O
0F
0G
0J
1P
0=
0>
1:
0*
0)
1&
#810000
0"
1$
0#
18
07
06
0B
0D
1C
0L
1N
1O
1E
1F
1G
1H
1J
1K
0P
19
1<
1=
1>
1?
0:
1+
1*
1)
1(
1%
0&
#815000
1!
15
1A
0M
0E
0F
0H
0K
09
0<
0>
0?
0+
0*
0(
0%
#820000
0!
05
0A
1M
1E
1F
1H
1K
19
1<
1>
1?
1+
1*
1(
1%
#825000
1!
0$
08
15
1A
0C
1L
0M
0E
0F
0G
0H
0K
09
0<
0=
0>
0?
0+
0*
0)
0(
0%
#830000
1$
1"
18
16
1B
1C
0L
0O
1E
1F
1G
1H
1I
0J
1K
1P
19
1;
1<
1=
1>
1?
1:
1+
1*
1)
1(
1'
1%
1&
#835000
0"
1#
17
06
0B
1D
0N
1O
#840000
1"
16
1B
0O
#845000
0$
0!
08
05
0A
0C
1L
1M
0E
0F
0G
0H
0I
0K
09
0;
0<
0=
0>
0?
0+
0*
0)
0(
0'
0%
#850000
0#
07
0D
1N
1G
1H
1J
1K
0P
19
1<
1=
0:
1)
1(
1%
0&
#855000
1!
0"
06
15
1A
0B
1O
0M
0G
0H
0K
09
0<
0=
0)
0(
0%
#860000
0!
05
0A
1M
1E
1?
1+
#865000
1$
18
1C
0L
1F
1G
1H
1K
19
1<
1=
1>
1*
1)
1(
1%
#870000
1!
1"
1#
17
16
15
1A
1B
1D
0N
0O
0M
1I
0J
1P
1;
1:
1'
1&
#875000
0"
0#
0$
08
07
06
0B
0D
0C
1L
1N
1O
0E
0F
0G
0H
0I
1J
0K
0P
09
0;
0<
0=
0>
0?
0:
0+
0*
0)
0(
0'
0%
0&
#880000
1"
16
1B
0O
1E
1F
1G
1H
1I
0J
1K
1P
19
1;
1<
1=
1>
1?
1:
1+
1*
1)
1(
1'
1%
1&
#885000
0"
1#
0!
17
06
05
0A
0B
1D
0N
1O
1M
0E
0G
0H
1J
0K
0P
09
0<
0=
0?
0:
0+
0)
0(
0%
0&
#890000
1"
16
1B
0O
0F
0I
0J
1P
0;
0>
1:
0*
0'
1&
#895000
0"
1!
1$
18
06
15
1A
0B
1C
0L
1O
0M
1E
1F
1G
1H
1I
1K
19
1;
1<
1=
1>
1?
1+
1*
1)
1(
1'
1%
#900000
0!
0#
07
05
0A
0D
1N
1M
0I
1J
0P
0;
0:
0'
0&
#905000
1#
17
1D
0N
0E
0H
0K
09
0<
0?
0+
0(
0%
#910000
1"
0$
08
16
1B
0C
1L
0O
0F
0G
0J
1P
0=
0>
1:
0*
0)
1&
#915000
1$
1!
18
15
1A
1C
0L
0M
1E
1F
1G
1H
1I
1K
19
1;
1<
1=
1>
1?
1+
1*
1)
1(
1'
1%
#920000
0!
0#
07
05
0A
0D
1N
1M
0E
0F
0H
0I
0K
09
0;
0<
0>
0?
0+
0*
0(
0'
0%
#925000
1!
1#
0$
08
17
15
1A
1D
0C
1L
0N
0M
1E
1F
1H
1I
1K
19
1;
1<
1>
1?
1+
1*
1(
1'
1%
#930000
0"
06
0B
1O
#935000
1"
0!
1$
18
16
05
0A
1B
1C
0L
0O
1M
0I
1J
0K
0P
09
0;
0:
0'
0%
0&
#945000
1!
15
1A
0M
1I
0J
1K
1P
19
1;
1:
1'
1%
1&
#950000
0$
0#
08
07
0D
0C
1L
1N
#955000
1$
0"
18
06
0B
1C
0L
1O
0E
0F
0H
0I
1J
0K
0P
09
0;
0<
0>
0?
0:
0+
0*
0(
0'
0%
0&
#960000
1#
0!
17
05
0A
1D
0N
1M
1F
1>
1*
#965000
1"
16
1B
0O
1E
1H
1<
1?
1+
1(
#970000
0"
0#
1!
07
06
15
1A
0B
0D
1N
1O
0M
0E
0F
0H
0<
0>
0?
0+
0*
0(
#975000
0$
08
0C
1L
0G
0=
0)
#980000
1$
1"
1#
0!
18
17
16
05
0A
1B
1D
1C
0L
0N
0O
1M
1E
1F
1G
1H
1<
1=
1>
1?
1+
1*
1)
1(
#985000
0$
0#
08
07
0D
0C
1L
1N
0E
0F
1K
19
0>
0?
0+
0*
1%
#995000
1$
1!
18
15
1A
1C
0L
0M
1E
1F
1I
0J
1P
1;
1>
1?
1:
1+
1*
1'
1&
