Test3/Test1/simulation/qsim/Test1.msim.vcd
$comment
	File created using the following command:
		vcd file Test1.msim.vcd -direction
$end
$date
	Mon Jan 13 20:47:08 2020
$end
$version
	ModelSim Version 10.5b
$end
$timescale
	1ps
$end

$scope module Test1_vlg_vec_tst $end
$var reg 1 ! A0 $end
$var reg 1 " A1 $end
$var reg 1 # A2 $end
$var reg 1 $ A3 $end
$var reg 1 % B0 $end
$var reg 1 & B1 $end
$var reg 1 ' B2 $end
$var reg 1 ( B3 $end
$var reg 1 ) GND $end
$var reg 1 * S0 $end
$var reg 1 + S1 $end
$var reg 1 , VCC $end
$var wire 1 - z0 $end
$var wire 1 . z1 $end
$var wire 1 / z2 $end
$var wire 1 0 z3 $end

$scope module i1 $end
$var wire 1 1 gnd $end
$var wire 1 2 vcc $end
$var wire 1 3 unknown $end
$var tri1 1 4 devclrn $end
$var tri1 1 5 devpor $end
$var tri1 1 6 devoe $end
$var wire 1 7 ~QUARTUS_CREATED_GND~I_combout $end
$var wire 1 8 B3~input_o $end
$var wire 1 9 S0~input_o $end
$var wire 1 : VCC~input_o $end
$var wire 1 ; GND~input_o $end
$var wire 1 < A3~input_o $end
$var wire 1 = S1~input_o $end
$var wire 1 > inst30|9~0_combout $end
$var wire 1 ? A2~input_o $end
$var wire 1 @ A0~input_o $end
$var wire 1 A inst28|sub|101~0_combout $end
$var wire 1 B A1~input_o $end
$var wire 1 C inst28|sub|84~combout $end
$var wire 1 D inst29|sub|78~combout $end
$var wire 1 E B2~input_o $end
$var wire 1 F inst21|4~combout $end
$var wire 1 G inst13|4~combout $end
$var wire 1 H B1~input_o $end
$var wire 1 I inst1|sub|105~0_combout $end
$var wire 1 J inst1|sub|80~combout $end
$var wire 1 K inst1|sub|78~combout $end
$var wire 1 L inst11|sub|90~0_combout $end
$var wire 1 M B0~input_o $end
$var wire 1 N inst1|sub|82~combout $end
$var wire 1 O inst16|sub|101~0_combout $end
$var wire 1 P inst16|sub|84~combout $end
$var wire 1 Q inst11|sub|101~0_combout $end
$var wire 1 R inst11|sub|88~0_combout $end
$var wire 1 S inst11|sub|84~combout $end
$var wire 1 T inst11|sub|101~1_combout $end
$var wire 1 U inst11|sub|86~combout $end
$var wire 1 V inst19|23~0_combout $end
$var wire 1 W inst30|10~0_combout $end
$var wire 1 X inst2|sub|104~0_combout $end
$var wire 1 Y inst14|4~combout $end
$var wire 1 Z inst31|1~0_combout $end
$var wire 1 [ inst|sub|104~0_combout $end
$var wire 1 \ inst22|4~combout $end
$var wire 1 ] inst31|9~0_combout $end
$var wire 1 ^ inst31|9~1_combout $end
$var wire 1 _ inst18|sub|80~combout $end
$var wire 1 ` inst31|9~2_combout $end
$var wire 1 a inst18|sub|106~0_combout $end
$var wire 1 b inst31|10~0_combout $end
$var wire 1 c inst|sub|105~0_combout $end
$var wire 1 d inst23|4~combout $end
$var wire 1 e inst31|10~1_combout $end
$var wire 1 f inst2|sub|105~0_combout $end
$var wire 1 g inst15|4~combout $end
$var wire 1 h inst31|10~2_combout $end
$upscope $end
$upscope $end
$enddefinitions $end
#0
$dumpvars
0!
0"
0#
1$
0%
1&
0'
0(
0)
1*
0+
1,
1-
1.
1/
10
01
12
x3
14
15
16
07
08
19
1:
0;
1<
0=
1>
0?
0@
0A
0B
0C
0D
0E
1F
1G
1H
0I
1J
0K
1L
0M
1N
0O
0P
0Q
1R
0S
0T
1U
1V
1W
1X
1Y
0Z
0[
1\
1]
1^
1_
1`
1a
0b
0c
1d
1e
1f
0g
1h
$end
#5000
1"
1(
1+
1B
18
1=
0e
0^
1[
0R
0L
1K
1I
0G
1b
0]
0\
0Y
1S
1Q
0N
0J
0_
1P
0U
1^
1e
0V
1N
1J
0S
1\
0h
0`
0.
0-
1U
0P
1V
1h
1`
1.
1-
1_
0V
#10000
1#
0$
0&
0*
1?
0<
0H
09
0b
1g
0\
1S
0Q
0N
0J
0[
0X
1R
1L
0K
0I
1G
0F
1D
0W
0>
00
0/
1V
1J
0_
1P
0U
1Y
0e
1W
1/
0V
0a
1_
0h
0-
#15000
1!
1%
0(
1&
1@
1M
08
1H
0g
1\
0Y
1Q
0J
1X
0L
1F
1b
1C
0b
0D
1e
1Y
0_
0e
1h
0W
0/
1-
0h
0-
#20000
0"
1$
0%
1(
0&
0B
1<
0M
18
0H
1g
0Q
1N
1c
1[
0F
1]
1>
10
0^
0d
0P
1a
1V
0`
0.
#25000
0+
0#
0!
1"
0$
0(
0=
0?
0@
1B
0<
08
0c
0[
0R
1K
1I
0G
0C
1d
1b
0\
0N
1J
1D
1Z
0>
1W
1/
00
1_
0b
0]
0D
0V
0J
1\
1h
1`
1.
1-
0_
1P
0W
0`
0.
0/
0a
1_
1V
1`
1.
1W
0`
0h
0-
0.
1/
#30000
1*
1%
1+
1!
19
1M
1=
1@
1C
1^
0Z
0W
0/
1D
1`
1.
#35000
1&
1#
0"
1(
0%
1H
1?
0B
18
0M
0d
0X
1R
1L
0K
0I
1G
1b
0\
0Y
0D
1W
1/
1e
0V
1J
0_
1Y
1_
1h
1-
#40000
1'
1$
0&
0#
1"
0(
1E
1<
0H
0?
1B
08
0f
1X
0R
1K
1I
0G
0g
0b
0Y
1N
1D
1>
10
0P
0e
1V
0J
1a
0_
1Y
1g
0V
0h
0-
#45000
0*
0!
0$
1&
1#
0"
1(
09
0@
0<
1H
1?
0B
18
1c
0X
1F
1d
1b
1]
0S
0D
0C
0>
00
0b
1D
1U
0^
1e
0W
0/
0e
1h
0`
1W
1/
0.
1-
0h
0-
#50000
0+
1*
1!
1$
0&
0#
0(
0=
19
1@
1<
0H
0?
08
0c
1X
0F
1b
1\
0D
0d
1S
0N
1J
1e
1>
10
1_
0U
0e
1^
0Y
1d
1h
0W
0/
1-
1e
1`
0h
0-
1.
1h
1-
#55000
0*
1#
09
1?
1f
1c
1R
0K
0I
1G
1F
1D
1C
0e
0^
1Z
0b
0D
1V
1N
0J
1P
0d
0`
0.
0a
0_
0V
0P
0h
1W
1/
0-
1a
1V
0W
1`
1h
1-
1.
0/
1W
0h
0-
1/
#60000
1%
1"
1+
0$
1&
1(
1*
0#
1M
1B
1=
0<
1H
18
19
0?
0f
0c
0]
0R
1I
0F
1D
0Z
0X
0g
1Q
0N
0W
0>
00
0/
1P
1Y
1N
1J
0S
1^
1d
0`
0.
1U
0a
1_
0P
0V
1`
1.
1a
1V
#65000
0'
0%
0"
0+
0(
1#
0E
0M
0B
0=
08
1?
1f
1b
0\
1R
0I
1F
0D
1X
0L
1e
0d
1S
0Q
0N
0J
0_
1P
0U
0e
0Y
1J
0^
1g
1h
1W
1/
1-
0a
1_
0V
0h
0`
0.
0-
#70000
0&
1'
1+
1(
0#
0H
1E
1=
18
0?
0f
1]
1\
0R
1I
0F
1D
0C
0X
1L
1e
1^
1d
1N
0J
0W
0/
0_
0P
1Y
0D
0N
1J
0^
1h
1`
1.
1-
1a
1_
1P
1V
0`
0.
0a
0V
#75000
1$
1&
1<
1H
0g
0d
0\
0Y
0J
1c
1[
1X
0L
1W
1>
10
1/
1Y
0_
#80000
0*
1%
1"
0+
0$
09
1M
1B
0=
0<
0c
0[
0X
1L
1C
0e
1Z
0]
1\
0Y
0S
1Q
1N
1J
0W
0/
1_
0P
1U
0b
1]
1D
1Y
1d
1`
1.
1V
1a
0h
0-
1W
1/
#85000
0!
0'
0(
1#
0&
0"
1+
1$
0@
0E
08
1?
0H
0B
1=
1<
1f
1X
1R
1K
0I
0G
0C
0Z
1g
1b
0Y
0Q
0N
0D
1e
0b
1D
0V
1N
0J
1Y
0W
0`
0.
0/
0_
0e
1h
1W
1/
1-
0h
0-
#90000
1*
0%
0#
1&
19
0M
0?
1H
0g
1J
0K
1G
1F
0D
1V
1_
#95000
1!
1'
1(
1"
0*
1%
0&
1@
1E
18
1B
09
1M
0H
1g
0\
1S
0N
1b
0]
1C
0f
1c
1[
0R
0L
1I
0F
0W
0/
0J
0U
1P
0g
0b
1]
1D
1^
1e
0^
0e
0a
0_
0V
1h
1`
1W
1/
1.
1-
0`
0h
0-
0.
#100000
0+
0$
1#
0!
0'
0"
1*
0%
1&
0=
0<
1?
0@
0E
0B
19
0M
1H
1g
0Y
0S
1N
1e
0]
0D
0C
1f
0c
1R
0I
0[
0X
1L
0W
0/
1U
0P
1Y
1J
0g
1D
1h
1-
1a
1_
1V
#105000
1+
1$
0#
0*
1%
1=
1<
0?
09
1M
1g
0d
0N
0e
1^
1]
1\
0R
1K
1I
0G
1F
0D
1[
1X
0L
1W
1/
0\
0V
0J
0^
0W
1`
0h
0-
1.
0/
0_
1P
0`
0.
0a
1_
#110000
1!
1'
0&
0+
0$
0%
1@
1E
0H
0=
0<
0M
1d
1S
0f
0[
0X
1L
0K
1G
0F
1Z
1\
0Y
1J
1b
1V
0U
1Y
1h
1-
0V
0h
1W
1/
0-
0W
0/
#115000
0(
1"
0'
1&
1+
1$
1%
08
1B
0E
1H
1=
1<
1M
0g
0S
1Q
1N
1f
1X
1R
0I
1F
1C
1e
0Z
0\
0Y
0]
1^
0b
1]
1D
0N
0J
1S
0P
1U
1h
1-
1V
1a
0_
0U
1P
0^
0e
1`
1W
1/
1.
0a
0V
0h
0`
0.
0-
#120000
1*
0$
19
0<
0R
0L
1K
1I
0G
0F
0]
0W
0>
00
0/
1^
1V
1N
1J
1_
0S
1U
1a
0_
0P
1`
1.
1_
0V
#125000
1#
0!
1(
0"
1'
0+
1?
0@
18
0B
1E
0=
1e
0^
0f
1c
1Y
1F
1g
0d
0Q
0N
0J
0D
0C
0X
1L
1>
10
1P
1D
0_
0e
0g
1W
1h
0`
0.
1-
1/
0a
1_
0h
0-
#130000
0*
0#
1!
0(
1"
1+
09
0?
1@
08
1B
1=
1^
1b
1\
1Q
1N
1J
0D
1C
0c
1X
0L
0K
1G
0>
00
1V
0P
0Y
1d
0b
1]
1D
1e
0W
1`
1.
0/
0^
0e
1a
1h
1W
1/
1-
0h
0`
0.
0-
#135000
0%
1$
0'
1(
0M
1<
0E
18
1f
1[
1K
0G
0\
1g
0d
1S
0Q
0N
1>
10
0U
0V
1\
#140000
1*
1#
0!
1%
19
1?
0@
1M
0S
1b
0C
1c
1Y
1R
0K
0I
1G
0F
0D
0W
0/
1V
1N
0J
1P
1d
1D
1e
1U
0a
0_
0P
1h
1-
1a
#145000
0&
0$
0(
0#
1!
0%
0H
0<
08
0?
1@
0M
0g
0d
1S
0b
1C
0c
0]
0\
0R
1K
1I
0G
0D
0[
1J
0>
00
1_
1\
0V
0J
1^
1D
0e
0U
0_
0h
1`
1.
0-
#150000
0+
1'
1&
1$
0!
1%
0=
1E
1H
1<
0@
1M
1g
0S
0N
1b
0C
0f
1L
0Y
1J
1>
10
1_
1U
0D
#155000
0"
1#
1+
1!
0%
0B
1?
1=
1@
0M
0g
1S
1C
1e
1f
1c
0\
1Y
1R
0K
0I
1G
1F
1D
0J
0_
1P
1V
1J
1g
0D
0U
1h
1-
0V
0a
1_
#160000
0&
1"
0#
0+
0H
1B
0?
0=
0e
0^
0f
0c
0b
0R
1K
1I
0G
0F
1D
0g
1N
1W
1/
0P
1V
0J
1a
0_
1g
0h
0W
0`
0.
0/
0-
0V
#165000
0*
1(
0'
1%
1&
1#
1+
09
18
0E
1M
1H
1?
1=
1^
1f
1c
1\
1R
0K
0I
1G
0D
0g
1d
0S
1Q
1J
1[
0L
1W
1/
1U
1_
1V
0N
0J
1S
0d
0W
1`
1.
0/
0U
0_
1P
0a
0V
#170000
0&
0#
0+
0H
0?
0=
0^
1Z
0c
1]
0\
0R
1K
1I
0G
1F
1D
1g
1d
0Q
1J
0>
00
1a
0P
1V
0J
1P
0V
1W
1h
1-
1/
0a
1_
1V
0W
0/
1W
0`
0h
0-
0.
1/
#175000
0"
1*
0(
1'
1&
1+
0B
19
08
1E
1H
1=
0Z
0g
0S
1N
0f
0F
0[
1L
1b
0C
1>
10
0D
1e
1U
0P
1g
1a
0_
0V
1h
1-
#180000
0$
0!
0%
1#
1"
1(
0<
0@
0M
1?
1B
18
1c
0X
1F
0g
1\
0Y
1Q
1J
1D
0>
00
1_
0d
#185000
0+
1$
1!
1%
0"
0=
1<
1@
1M
0B
1g
1d
0]
0\
1Y
0Q
0J
1C
1f
1[
1X
0L
0e
1^
1\
0g
0D
0_
0^
1e
1`
0h
0-
1.
1^
1h
0`
0.
1-
1`
1.
#190000
0*
0'
0&
0(
1+
0$
0%
1"
09
0E
0H
08
1=
0<
0M
1B
0d
0b
0\
0Y
1S
0c
0[
1R
0K
0I
1G
0W
0/
1V
1J
0U
0e
1_
0h
0-
#195000
0#
1*
1'
1&
1(
1%
0?
19
1E
1H
18
1M
1d
1Q
0N
0f
0X
0R
1L
1I
0F
1\
0J
1D
0_
1P
1N
1J
0S
1Y
1U
0a
1_
0P
0V
1a
1V
#200000
1#
0(
0%
1?
08
0M
1g
0d
1S
0Q
0N
1f
1c
1X
0L
1K
0G
1]
0Y
0D
1W
1/
0^
0V
0U
1d
0`
0.
#205000
0+
0*
0'
0#
1(
1%
0=
09
0E
0?
18
1M
0g
0d
0S
1Q
1N
0f
0c
0X
1L
1F
0\
1D
1Z
1>
0W
0/
10
1U
1d
#210000
0!
0&
1+
1*
1#
0%
0@
0H
1=
19
1?
0M
1S
0Q
0N
1f
1b
1Y
1R
0K
0I
1G
0F
0D
0C
0Z
0J
1W
0>
00
1/
0_
1P
1D
1V
1J
1e
1g
0U
0V
0a
1_
1h
1-
#215000
1'
1&
1%
1E
1H
1M
0d
0S
1N
1\
0Y
0J
0f
1c
0R
1K
1I
0G
1F
1V
0N
1J
0P
1d
1U
0V
1a
#220000
1$
0(
1!
0+
0#
1<
08
1@
0=
0?
0c
0b
0]
1Y
0F
0D
1C
1^
0g
0d
1Q
1N
1X
1>
10
0Y
0e
1D
1d
1`
0W
0/
1.
1e
0h
0-
1h
1-
#225000
0"
0'
0&
0%
1(
0!
0B
0E
0H
0M
18
0@
0d
0C
1f
1[
0L
1F
0\
1]
0>
00
0^
1\
0D
0e
1W
1/
1^
0h
0`
0.
0-
1`
1.
#230000
0*
0$
1"
1'
1!
09
0<
1B
1E
1@
1b
1S
0Q
1C
0f
0\
1Y
0K
1G
0F
0]
0J
0[
0X
1L
0^
1Z
0W
1>
10
0/
0U
0Y
0_
1V
1g
0b
1]
1D
1W
1/
#235000
1+
1&
1%
0(
1$
0'
1=
1H
1M
08
1<
0E
1f
1R
0I
1F
1X
0g
1d
0S
1Q
1J
0Z
1_
1U
0N
0J
1S
0`
0.
0U
0_
1P
0a
0V
#240000
1*
0+
0%
1(
1'
19
0=
0M
18
1E
0f
1c
1\
0R
1I
0F
1[
0L
1g
0d
0Q
1N
1e
0]
0>
00
1^
0P
0e
0N
1J
1d
1h
0W
0/
1-
1e
1a
1_
1P
1V
0h
1`
1.
0-
0a
0V
1h
1-
#245000
0"
0!
0&
1+
1%
0(
0'
0B
0@
0H
1=
1M
08
0E
1f
0c
1R
0I
1F
0[
1L
0d
0S
0e
0C
1]
1>
1W
1/
10
0^
0D
1U
0\
1N
0J
1d
0h
0-
0_
0P
1V
0`
0.
1a
#250000
1#
0*
1&
1?
09
1H
0d
0N
1J
1K
0G
0F
1D
0W
0/
0V
1_
1W
1/
#255000
1"
1'
0#
1*
1B
1E
0?
19
1b
0]
0f
1\
0R
1I
0D
1N
0J
0_
0N
1J
1^
1e
1_
1h
1`
1.
1-
#260000
1!
0"
0'
1@
0B
0E
1f
1Y
1R
0K
0I
1G
1F
1d
1]
1N
0J
0_
0^
1V
1J
0g
1_
0`
0.
#265000
0+
0%
1(
1#
0!
1"
1'
0=
0M
18
1?
0@
1B
1E
1c
0Y
0R
1K
1I
0G
1S
1Q
0N
0J
1D
1[
0L
1^
0>
00
0U
1P
0\
0_
0V
1N
1J
0S
0d
1`
1.
0e
1U
0P
0^
1V
1_
0V
0`
0h
0-
0.
#270000
0&
1+
0#
1!
0H
1=
0?
1@
0b
1S
0Q
1C
0f
0]
1Y
0K
1G
0F
0D
1e
0J
1>
10
0_
1V
1^
1g
1D
0U
0e
1h
1-
0h
1`
1.
0-
#275000
0*
1%
0'
1&
1#
0!
09
1M
0E
1H
1?
0@
1d
1b
0S
0N
0C
1f
1\
1R
0I
0D
1J
1_
1P
1N
0J
0b
1D
1U
1e
0W
0/
0e
0a
0_
0P
1h
1W
1/
1-
1a
0h
0-
#280000
0(
1'
1!
08
1E
1@
0g
0d
1b
1S
1Q
0N
1C
0\
0Y
1F
0[
1L
0U
1P
1\
0b
0D
1e
0e
0a
0V
1h
0W
0/
1-
0h
0-
#285000
0+
0%
0#
0!
0=
0M
0?
0@
1b
0C
0f
0c
1]
0R
1K
1I
0G
0F
1D
0^
1Z
1V
1N
1J
1_
0S
1d
0b
0]
0D
1U
1a
0_
0P
1W
0`
1h
1-
0.
1/
1_
0V
0h
0-
0W
0/
#290000
0$
0&
1(
1+
1#
1!
0<
0H
18
1=
1?
1@
1g
0d
1b
1S
0Q
1C
1c
0\
1Y
1F
1D
1^
0Z
0X
0J
0>
00
0_
0b
0D
0U
1e
1`
1W
1/
1.
0e
1h
0W
0/
1-
0h
0-
#295000
0"
0'
1%
0(
0+
0!
0B
0E
1M
08
0=
0@
1b
0S
0N
0C
0^
1Z
1f
0c
1X
1R
0L
0K
0I
1G
1\
0Y
1]
1J
1_
1P
1V
1N
0J
1U
1Y
1d
0b
1D
1h
1-
0a
0_
0P
1W
1/
1a
#300000
1*
1$
1"
1'
0%
1+
19
1<
1B
1E
0M
1=
0Z
1S
0N
1c
0\
1b
1J
1L
0W
1>
10
0/
0U
1P
1_
1e
0h
0`
0.
0-
0a
0V
1h
1-
#305000
1&
1(
0*
0"
0'
1%
0+
1H
18
09
0B
0E
1M
0=
0e
1Z
0d
0S
0Y
0F
0b
1[
0L
0>
00
1U
0h
0-
1V
1h
1-
1W
1/
#310000
1!
0$
0&
0(
1*
0%
1+
1@
0<
0H
08
19
0M
1=
0Z
1S
1N
1b
0]
0c
0[
1F
1\
1Y
0J
1C
0D
0_
0P
1^
1d
1e
0U
0h
0-
1a
1h
1`
1.
1-
#315000
1'
0!
1$
1(
0*
1E
0@
1<
18
09
1]
1c
1[
0R
1K
1I
0G
0C
0g
0d
1Q
0N
0Y
0W
1>
10
0/
1P
0b
1D
0V
1N
1J
0S
0\
1d
0^
0e
1U
0P
1V
0`
1W
1/
0.
1_
0V
0h
0-
#320000
0#
1"
1&
0+
0$
1*
0?
1B
1H
0=
0<
19
1e
1b
0]
0f
0c
0[
0X
1L
0K
1G
0F
0d
1\
0D
1^
0e
1V
1Y
1d
0W
1h
1-
0/
1e
1`
0h
0-
1.
1h
1-
#325000
1!
0(
0"
1+
1@
08
0B
1=
0d
1]
0\
0Y
1S
0Q
0N
0J
1X
0L
1F
0>
00
0U
1P
1Y
0_
0^
0a
0V
0`
0.
#330000
1%
0&
1$
1(
0+
1M
0H
1<
18
0=
0e
1c
1[
0F
1\
0Y
0S
1Q
1N
1J
1W
1/
1_
0P
1U
1^
1d
0h
0W
0/
0-
1e
1V
1a
1`
1.
1h
1-
#335000
0'
0!
0(
0E
0@
08
1f
0c
0[
1R
1L
0I
1F
1g
0d
0b
0Q
0N
1>
10
1P
0e
1N
0J
0\
1d
1W
1/
1e
0^
0a
0_
0P
0h
0-
1a
0`
1h
1-
0.
#340000
0$
1'
1!
1(
0<
1E
1@
18
0f
0X
0R
1I
0F
0g
0d
1b
1S
1Q
0N
1\
1^
1P
0U
0e
1N
1J
0S
1Y
0W
0/
1U
0a
1_
0P
0V
1`
0h
0-
1.
1a
1V
#345000
1#
1"
1&
1+
1$
0'
0!
0(
1?
1B
1H
1=
1<
0E
0@
08
1f
1X
1R
1K
0I
0G
1g
0Q
0N
0Y
1e
0^
1D
0V
1N
0J
1Y
0`
1h
1-
0.
0_
#350000
0*
0%
0#
0"
0&
0$
1'
09
0M
0?
0B
0H
0<
1E
0f
0Y
0R
0K
1I
1G
1F
0L
0g
1S
1Q
0N
0b
0D
1W
0>
00
1/
0e
1P
0U
1V
1N
1J
0S
0W
0/
1U
0a
1_
0P
0V
0h
0-
1a
1V
#355000
0+
1(
1#
1&
1$
0'
0=
18
1?
1H
1<
0E
1f
1c
0\
1R
0I
0F
1[
1g
1d
0Q
0J
1D
1Z
1W
1/
0_
1J
0g
1h
1-
1_
0h
0-
#360000
1%
1"
1+
0(
0$
1M
1B
1=
08
0<
0c
0[
1F
0Z
1g
0]
1\
1Y
0J
0_
1^
0d
1`
1.
#365000
1!
1*
0#
0&
0%
0"
1(
1$
1@
19
0?
0H
0M
0B
18
1<
1[
0R
1K
1I
0G
1d
1b
1]
0\
0Y
1S
0D
1>
10
0U
0^
1e
0V
0N
1J
1\
1_
1h
0`
0.
1-
#370000
1'
0+
0*
1%
1"
0$
1E
0=
09
1M
1B
0<
0f
0[
0X
1L
0K
1G
0F
1C
0]
0\
1Y
0J
0e
1Z
0W
0/
0_
1P
0b
1]
1D
1V
0Y
0g
0a
0V
1`
1W
1/
1.
0W
0h
0-
0/
#375000
1&
0'
1+
1H
0E
1=
0Z
1K
0G
1F
0S
1Q
1N
1J
1W
0>
00
1/
1a
0P
1U
1V
0`
0.
0V
1_
#380000
0!
0(
1*
0%
0"
1$
0&
0+
0@
08
19
0M
0B
1<
0H
0=
1e
0d
1f
1X
1R
0K
0I
1G
0C
1>
10
0D
1V
0N
0J
1S
0e
1h
1-
0U
0_
1P
0h
0-
0a
0V
#385000
1'
1!
1(
0$
1&
1E
1@
18
0<
1H
1g
1Y
0Q
1J
0f
0X
0R
1I
0F
1b
0J
0Y
0g
1_
0W
0/
0_
#390000
1#
0*
1%
1+
0!
0(
1$
0&
1?
09
1M
1=
0@
08
1<
0H
1g
1d
1\
0S
1J
1f
1c
1X
1R
0I
1F
0b
1e
1D
0e
1N
0J
0d
1_
1U
1W
1h
1-
1/
1V
0_
0P
0h
0-
1a
#395000
1"
0'
0%
0+
1!
1(
1B
0E
0M
0=
1@
18
1[
0L
0F
0g
1b
1S
1C
1Z
0\
0]
1J
0>
00
1_
0b
0D
0U
#400000
1*
0$
1&
0!
19
0<
1H
0@
1b
1Q
0N
0C
1\
1Y
0J
0c
0[
0X
1L
1]
0Z
0W
1>
10
0/
1^
1P
0Y
1d
0_
1D
1e
0a
0V
1`
1.
1h
1-
#405000
1'
1%
1+
0(
1$
0&
1!
1E
1M
1=
08
1<
0H
1@
1g
0b
0Q
1C
0\
1Y
1J
1c
1X
1F
0^
1_
0D
0e
0`
0.
0h
0-
#410000
0"
0%
1(
0!
0B
0M
18
0@
0g
1Q
0C
1[
0R
0L
1K
1I
0G
0]
1\
0Y
0J
1^
1V
1N
1J
0S
0\
1D
1U
1a
0_
0P
1`
1.
1_
0V
#415000
0#
0'
0$
1"
0?
0E
0<
1B
1g
1b
1Y
1S
0Q
0N
0J
0D
0f
0c
0[
0X
1L
0>
00
0U
1P
1\
0g
0_
1e
0a
1_
1V
1h
1-
#420000
0(
1!
1#
1'
08
1@
1?
1E
1f
1c
0\
0F
0b
1]
1D
1C
1g
0d
1N
1X
0L
1W
1/
0P
0e
0D
0^
0g
1a
0_
0V
0h
0`
0.
0-
#425000
0*
1&
1$
1(
0!
0#
09
1H
1<
18
0@
0?
0f
1b
1\
0Y
0K
1G
1D
0C
0S
1Q
1[
1J
0W
1>
10
0/
1_
1U
0b
0]
0D
1V
1e
1W
1/
1^
0e
1h
0W
0/
1-
0h
1`
1.
0-
#430000
1*
0&
1#
19
0H
1?
1f
1b
1]
1Y
1K
0G
1F
1D
1d
1S
0Q
0N
0J
0_
1P
0U
1e
0V
0^
1g
1V
0a
1_
1h
0`
0.
1-
#435000
1%
0"
0$
1!
0#
1M
0B
0<
1@
0?
0f
0c
0Y
0K
1G
0F
0D
0g
0S
1Q
1N
0[
0X
1L
1J
0>
00
0P
1U
1Y
0V
0d
1V
1a
#440000
0+
0*
1&
0!
1#
0=
09
1H
0@
1?
1c
0b
0\
1K
0G
1F
1D
0Q
0N
0J
0e
1Z
1W
1>
10
1/
0_
1P
0V
0h
1`
1.
0-
0a
1_
0W
0/
#445000
0(
1*
0&
0#
08
19
0H
0?
0c
1\
0K
1G
0D
1g
1J
0Z
1X
0L
1W
0>
00
1/
0Y
1V
1^
1d
0`
0.
1e
1`
1.
1h
1-
#450000
0'
1#
0E
1?
1f
0]
1Y
1R
0I
1D
1N
0J
0_
0P
1a
#455000
1"
1$
1+
1!
1(
0*
1&
1'
1B
1<
1=
1@
18
09
1H
1E
1c
0Y
0R
1K
1I
0G
0g
1S
1Q
0N
0e
1b
1[
1C
1>
10
0b
0D
0\
1e
1P
0U
0V
1N
1J
0S
0d
0h
0-
0e
1U
0P
1V
1h
0W
0/
1-
1_
0V
0h
0-
#460000
0#
0!
0?
0@
1g
1d
1b
0Q
0N
0C
0f
1]
1\
0K
1G
0F
1D
1V
1P
0^
0b
0]
0D
1e
1W
1/
1^
0e
0a
1h
0W
0`
0.
0/
1-
0h
1`
1.
0-
#465000
1*
0'
1!
19
0E
1@
0g
0d
1Q
1N
1C
1f
0c
1K
0G
1F
1W
1/
0V
1a
0_
0P
1d
1D
1_
#470000
0%
0"
0$
1#
1'
0!
0M
0B
0<
1?
1E
0@
0Q
0C
0f
1c
1Y
0D
0[
0X
1L
0J
0>
00
0_
0\
1g
1D
#475000
0+
0(
0&
0*
1$
0#
0'
1!
0=
08
0H
09
1<
0?
0E
1@
0d
1b
1S
0N
1f
0c
0Y
1R
0K
0I
1G
1]
0D
1X
0^
1Z
1J
0W
1>
10
0/
1_
1P
1V
1N
0J
1d
0U
1h
0`
0.
1-
0V
0a
0_
0P
0h
1W
1/
0-
1a
1V
1`
1h
0W
0/
1-
1.
1W
0h
0-
1/
#480000
0$
1#
0!
0<
1?
0@
0g
0d
0b
1Q
0N
1\
1Y
1D
0L
0>
00
1P
1h
1-
0a
0V
0W
0h
0-
0/
#485000
1%
1"
1+
1!
1M
1B
1=
1@
1g
1d
1b
0Q
1C
0Z
0]
0\
0Y
1J
1W
1/
1_
1^
0b
0D
1e
0`
0.
0e
1h
0W
1`
1.
0/
1-
0h
0-
#490000
1*
1'
0#
0"
0+
0!
19
1E
0?
0B
0=
0@
0S
1N
0C
1e
0^
1]
1\
0J
1D
0f
0R
1I
1W
1/
0N
1J
0_
0P
1^
0D
1U
0`
1h
1-
0.
1V
1a
1_
1P
1`
1.
0a
#495000
0%
0'
1#
1"
1!
0M
0E
1?
1B
1@
0d
1S
1N
1C
0\
0J
1D
1f
1R
0I
1J
0g
0_
0P
0^
0D
0U
0e
1a
1_
0h
0`
0.
0-
#500000
1+
0"
1=
0B
1g
1d
1b
0]
1\
1Y
0J
0_
1^
1e
1h
1`
1.
1-
#505000
1'
0!
1"
1E
0@
1B
1]
0\
0N
1J
0C
1c
0R
1K
1I
0G
0F
0V
0J
1_
1D
0^
0_
1P
0`
0.
0a
1_
1V
#510000
1(
1&
1$
0+
18
1H
1<
0=
1[
1F
0g
0d
1\
0Y
0S
1Q
1N
1J
0W
0/
1a
0_
0P
1U
1^
0e
0\
1W
1/
0^
0V
1_
0h
1`
1.
0-
0`
0.
#515000
1%
0#
1!
0"
0(
1+
1M
0?
1@
0B
08
1=
1e
0f
0c
0[
1L
0F
1d
1Y
0Q
0J
0D
1>
10
0_
1g
1h
1-
#520000
0*
0&
0$
0%
1#
1"
09
0H
0<
0M
1?
1B
0d
0]
1S
1D
1C
1f
1c
0L
0W
0>
00
0/
0U
0g
0b
0D
1^
1W
1/
0e
1`
0W
0/
1.
0h
0-
#525000
0'
0!
1(
0+
1%
0#
0E
0@
18
0=
1M
0?
0f
0c
1b
1]
1\
1F
1D
0C
0S
0^
1Z
0X
1L
1>
10
1U
0b
0]
0D
1g
1h
1-
#530000
1*
1&
1$
0"
1'
1+
1#
19
1H
1<
0B
1E
1=
1?
1f
1c
0\
1D
1^
0Z
0g
0N
1[
1X
0L
1P
1\
1g
0h
0-
0a
1_
#535000
1!
0(
0*
1"
1@
08
09
1B
0g
1b
0\
0Y
1Q
1N
1J
1C
0[
1R
1L
0K
0I
1G
1W
1/
1V
0N
0J
0P
1S
1\
0b
0D
1e
0e
0U
1a
0_
1P
1h
0W
0/
1-
0a
0V
0h
0-
#540000
0%
0+
1(
1*
0"
0M
0=
18
19
0B
1g
1b
0\
1Y
0Q
1J
1[
0R
0L
1K
1I
0G
1W
0>
00
1/
1V
0J
1a
0P
1\
0^
1^
0V
1P
0`
0.
0a
1_
1V
1`
1.
#545000
0&
0'
0#
1%
0*
0H
0E
0?
1M
09
0^
1Z
0g
1d
0S
1Q
1N
0c
0Y
1D
0C
1J
1a
0_
0P
1]
0D
0d
1U
0`
1h
1-
0.
0V
1_
0h
0-
0W
0/
#550000
0!
1+
0(
1"
1&
1'
1#
1*
0@
1=
08
1B
1H
1E
1?
19
1e
0Z
1c
0\
1R
0K
0I
1G
1D
1g
0Q
0N
0[
1L
1>
10
1P
1\
1V
1N
0J
1d
1h
1-
0a
0_
0P
1a
#555000
0%
1!
0+
1(
0&
0'
0#
0*
0M
1@
0=
18
0H
0E
0?
09
0e
0]
1Z
0c
1Y
0R
1K
1I
0G
0D
1C
0g
0d
1S
1J
1[
0L
1W
0>
00
1/
0U
0\
1_
0b
1]
1D
0V
0J
0h
1`
1.
0-
0_
0W
0`
0.
0/
1`
1.
#560000
0$
0"
1%
1'
0<
0B
1M
1E
0f
1\
0Y
0K
1G
0F
0S
1Q
1b
0]
1J
0C
0[
0X
1L
1>
10
1U
1Y
1]
0D
1_
1V
1W
1/
#565000
1+
1&
1*
1"
1=
1H
19
1B
1d
0b
0]
1C
1e
0Z
0W
0>
00
0/
1D
1^
0e
1h
0`
0.
1-
0h
1`
1.
0-
